7 Section 6 Overview | Data Science Inference and Modeling
…
## `summarise()` ungrouping output (override with `.groups` argument)

# 10 closest races = battleground states
results %>% arrange(abs(avg))

## # A tibble: 47 x 4
##    state               avg     sd     n
##    <chr>             <dbl>  <dbl> <int>
##  1 Florida         0.00356 0.0163     7
##  2 North Carolina -0.00730 0.0306     9
##  3 Ohio           -0.0104  0.0252     6
##  4 Nevada          0.0169  0.0441     7
##  5 Iowa           -0.0197  0.0437     3
##  6 Michigan        0.0209  0.0203     6
##  7 Arizona        -0.0326  0.0270     9
##  8 Pennsylvania    0.0353  0.0116     9
##  9 New Mexico      0.0389  0.0226     6
## 10 Georgia        -0.0448  0.0238     4
## # … with 37 more rows
…
# assigns sd to states with just one poll as median of other sd values
results <- results %>%
    mutate(sd = ifelse(is.na(sd), median(results$sd, na.rm = TRUE), sd))

Code: Calculating the posterior mean and posterior standard error

mu <- 0
tau <- 0.02
results %>% mutate(sigma = sd/sqrt(n),
                   B = sigma^2/ (sigma^2 + tau^2),
                   posterior_mean = B*mu + (1-B)*avg,
                   posterior_se = sqrt( 1 / (1/sigma^2 + 1/tau^2))) %>%
    arrange(abs(posterior_mean))

## # A tibble: 47 x 12
##    state               avg     sd     n electoral_votes clinton trump others   sigma      B posterior_mean posterior_se
##    <chr>             <dbl>  <dbl> <int>           <int>   <dbl> <dbl>  <dbl>   <dbl>  <dbl>          <dbl>        <dbl>
##  1 Florida         0.00356 0.0163     7              29    47.8  49      3.2 0.00618 0.0871        0.00325      0.00590
##  2 North Carolina -0.00730 0.0306     9              15    46.2  49.8    4   0.0102  0.207        -0.00579      0.00909
##  3 Iowa           -0.0197  0.0437     3               6    41.7  51.1    7.1 0.0252  0.614        -0.00762      0.0157 
##  4 Ohio           -0.0104  0.0252     6              18    43.5  51.7    4.8 0.0103  0.210        -0.00823      0.00916
##  5 Nevada          0.0169  0.0441     7               6    47.9  45.5    6.6 0.0167  0.410         0.00995      0.0128 
##  6 Michigan        0.0209  0.0203     6              16    47.3  47.5    5.2 0.00827 0.146         0.0179       0.00764
##  7 Arizona        -0.0326  0.0270     9              11    45.1  48.7    6.2 0.00898 0.168        -0.0272       0.00820
##  8 New Mexico      0.0389  0.0226     6               5    48.3  40     11.7 0.00921 0.175         0.0321       0.00836
##  9 Georgia        -0.0448  0.0238     4              16    45.9  51      3.1 0.0119  0.262        -0.0331       0.0102 
## 10 Pennsylvania    0.0353  0.0116     9              20    47.9  48.6    3.6 0.00387 0.0361        0.0341       0.00380
## # … with 37 more rows
…
Repeat the previous exercise, but instead of pollster, stratify by state. Here we can’t show grades.

# The `cis` data have already been loaded for you
add <- results_us_election_2016 %>% mutate(actual_spread = clinton/100 - trump/100) %>% select(state, actual_spread)
ci_data <- cis %>% mutate(state = as.character(state)) %>% left_join(add, by = "state")

# Create an object called `p_hits` that summarizes the proportion of hits for each state that has more than 5 polls.
p_hits <- ci_data %>% mutate(hit = lower <= actual_spread & upper >= actual_spread) %>% group_by(state) %>% filter(n() >=  5) %>% summarize(proportion_hits = mean(hit), n = n()) %>% arrange(desc(proportion_hits))

## `summarise()` ungrouping output (override with `.groups` argument)

p_hits

## # A tibble: 51 x 3
##    state        proportion_hits     n
##    <chr>                  <dbl> <int>
##  1 Connecticut            1        13
##  2 Delaware               1        12
##  3 Rhode Island           1        10
##  4 New Mexico             0.941    17
##  5 Washington             0.933    15
##  6 Oregon                 0.929    14
##  7 Illinois               0.923    13
##  8 Nevada                 0.923    26
##  9 Maine                  0.917    12
## 10 Montana                0.917    12
## # … with 41 more rows
…
