4 Section 3 Overview | Data Science Inference and Modeling
…
# Add variable called `error` to the object `polls` that contains the difference between d_hat and the actual difference on election day. Then make a plot of the error stratified by pollster, but only for pollsters who took 5 or more polls.
error <- polls$d_hat - 0.021
polls <- mutate(polls, error)
polls %>% group_by(pollster) %>% filter(n() >= 5) 

## # A tibble: 48 x 21
## # Groups:   pollster [7]
##    state startdate  enddate    pollster grade samplesize population rawpoll_clinton rawpoll_trump rawpoll_johnson rawpoll_mcmullin adjpoll_clinton adjpoll_trump adjpoll_johnson
##    <fct> <date>     <date>     <fct>    <fct>      <int> <chr>                <dbl>         <dbl>           <dbl>            <dbl>           <dbl>         <dbl>           <dbl>
##  1 U.S.  2016-11-03 2016-11-06 ABC New… A+          2220 lv                    47            43               4                 NA            45.2          41.7            4.63
##  2 U.S.  2016-11-02 2016-11-06 Ipsos    A-          2195 lv                    42            39               6                 NA            42.0          38.8            6.84
##  3 U.S.  2016-11-04 2016-11-07 IBD/TIPP A-          1107 lv                    41.2          42.7             7.1               NA            42.9          42.2            6.32
##  4 U.S.  2016-11-05 2016-11-07 The Tim… <NA>        2521 lv                    45            40               5                 NA            45.1          42.3            3.68
##  5 U.S.  2016-11-01 2016-11-07 USC Dor… <NA>        2972 lv                    43.6          46.8            NA                 NA            45.3          43.4           NA   
##  6 U.S.  2016-10-31 2016-11-06 CVOTER … C+          1625 lv                    48.9          46.1            NA                 NA            47.0          42.0           NA   
##  7 U.S.  2016-11-02 2016-11-06 Rasmuss… C+          1500 lv                    45            43               4                 NA            45.6          43.1            4.42
##  8 U.S.  2016-11-02 2016-11-05 ABC New… A+          1937 lv                    47            43               4                 NA            45.3          41.8            4.64
##  9 U.S.  2016-10-31 2016-11-04 Ipsos    A-          2244 lv                    43            39               6                 NA            43.1          39.0            6.76
## 10 U.S.  2016-11-01 2016-11-04 ABC New… A+          1685 lv                    48            43               4                 NA            46.3          41.8            4.62
## # … with 38 more rows, and 7 more variables: adjpoll_mcmullin <dbl>, d_hat <dbl>, X_hat <dbl>, se_hat <dbl>, lower <dbl>, upper <dbl>, error <dbl>
…
